{
  "photos": {
    "page": 1,
    "pages": 5994,
    "perpage": 50,
    "total": "299667",
    "photo": [
      {
        "id": "24405308621",
        "owner": "12897209@N05",
        "secret": "0df7a7ee36",
        "server": "1704",
        "farm": 2,
        "title": "Iceland",
        "ispublic": 1,
        "isfriend": 0,
        "isfamily": 0
      },
      {
        "id": "24487516165",
        "owner": "53151484@N00",
        "secret": "6705a71769",
        "server": "1474",
        "farm": 2,
        "title": "Icy fog",
        "ispublic": 1,
        "isfriend": 0,
        "isfamily": 0
      },
      {
        "id": "24379020172",
        "owner": "22804970@N08",
        "secret": "970619a25d",
        "server": "1468",
        "farm": 2,
        "title": "Vik",
        "ispublic": 1,
        "isfriend": 0,
        "isfamily": 0
      },
      {
        "id": "24119450619",
        "owner": "46511565@N08",
        "secret": "97eaf20ac6",
        "server": "1491",
        "farm": 2,
        "title": "Winter Sweetness",
        "ispublic": 1,
        "isfriend": 0,
        "isfamily": 0
      },
      {
        "id": "24191642150",
        "owner": "32722199@N03",
        "secret": "47417ab4be",
        "server": "1665",
        "farm": 2,
        "title": "DC3-V",
        "ispublic": 1,
        "isfriend": 0,
        "isfamily": 0
      },
      {
        "id": "24460962876",
        "owner": "45280465@N07",
        "secret": "5095fb5228",
        "server": "1584",
        "farm": 2,
        "title": "Loki gate",
        "ispublic": 1,
        "isfriend": 0,
        "isfamily": 0
      },
      {
        "id": "24191503720",
        "owner": "13115397@N07",
        "secret": "d9a397898e",
        "server": "1633",
        "farm": 2,
        "title": "Just Another Waterfall in Iceland",
        "ispublic": 1,
        "isfriend": 0,
        "isfamily": 0
      },
      {
        "id": "24486977475",
        "owner": "129404113@N08",
        "secret": "b94a4a2ebd",
        "server": "1622",
        "farm": 2,
        "title": "",
        "ispublic": 1,
        "isfriend": 0,
        "isfamily": 0
      },
      {
        "id": "24191250400",
        "owner": "9773886@N04",
        "secret": "6ca3fb9428",
        "server": "1516",
        "farm": 2,
        "title": "My horses",
        "ispublic": 1,
        "isfriend": 0,
        "isfamily": 0
      },
      {
        "id": "24378203842",
        "owner": "35194391@N08",
        "secret": "0cfa4184ac",
        "server": "1491",
        "farm": 2,
        "title": "On the Road",
        "ispublic": 1,
        "isfriend": 0,
        "isfamily": 0
      },
      {
        "id": "24378198642",
        "owner": "35194391@N08",
        "secret": "7335f696e5",
        "server": "1635",
        "farm": 2,
        "title": "On the Road",
        "ispublic": 1,
        "isfriend": 0,
        "isfamily": 0
      },
      {
        "id": "23858290294",
        "owner": "35194391@N08",
        "secret": "059640c019",
        "server": "1550",
        "farm": 2,
        "title": "On the Road",
        "ispublic": 1,
        "isfriend": 0,
        "isfamily": 0
      },
      {
        "id": "24118713389",
        "owner": "35194391@N08",
        "secret": "f00cae7951",
        "server": "1478",
        "farm": 2,
        "title": "On the Road",
        "ispublic": 1,
        "isfriend": 0,
        "isfamily": 0
      },
      {
        "id": "24486466815",
        "owner": "35194391@N08",
        "secret": "d6fdd742af",
        "server": "1519",
        "farm": 2,
        "title": "On the Road",
        "ispublic": 1,
        "isfriend": 0,
        "isfamily": 0
      },
      {
        "id": "24118704639",
        "owner": "35194391@N08",
        "secret": "48c99b1c8d",
        "server": "1452",
        "farm": 2,
        "title": "On the Road",
        "ispublic": 1,
        "isfriend": 0,
        "isfamily": 0
      },
      {
        "id": "23858269574",
        "owner": "35194391@N08",
        "secret": "9e9a474b4b",
        "server": "1695",
        "farm": 2,
        "title": "On the Road",
        "ispublic": 1,
        "isfriend": 0,
        "isfamily": 0
      },
      {
        "id": "24404049041",
        "owner": "35194391@N08",
        "secret": "204b2a7e13",
        "server": "1512",
        "farm": 2,
        "title": "On the Road",
        "ispublic": 1,
        "isfriend": 0,
        "isfamily": 0
      },
      {
        "id": "24404044261",
        "owner": "35194391@N08",
        "secret": "9f26f94b56",
        "server": "1535",
        "farm": 2,
        "title": "On the Road",
        "ispublic": 1,
        "isfriend": 0,
        "isfamily": 0
      },
      {
        "id": "23859639623",
        "owner": "35194391@N08",
        "secret": "c5d6bc25d7",
        "server": "1529",
        "farm": 2,
        "title": "On the Road",
        "ispublic": 1,
        "isfriend": 0,
        "isfamily": 0
      },
      {
        "id": "24460236646",
        "owner": "35194391@N08",
        "secret": "d91f2461ef",
        "server": "1473",
        "farm": 2,
        "title": "On the Road",
        "ispublic": 1,
        "isfriend": 0,
        "isfamily": 0
      },
      {
        "id": "23859630883",
        "owner": "35194391@N08",
        "secret": "4a7b3bde67",
        "server": "1667",
        "farm": 2,
        "title": "On the Road",
        "ispublic": 1,
        "isfriend": 0,
        "isfamily": 0
      },
      {
        "id": "24460228476",
        "owner": "35194391@N08",
        "secret": "69e1abdd5e",
        "server": "1503",
        "farm": 2,
        "title": "On the Road",
        "ispublic": 1,
        "isfriend": 0,
        "isfamily": 0
      },
      {
        "id": "24460223466",
        "owner": "35194391@N08",
        "secret": "6a27c04d00",
        "server": "1620",
        "farm": 2,
        "title": "On the Road",
        "ispublic": 1,
        "isfriend": 0,
        "isfamily": 0
      },
      {
        "id": "24404016781",
        "owner": "35194391@N08",
        "secret": "b1ded099e9",
        "server": "1664",
        "farm": 2,
        "title": "On the Road",
        "ispublic": 1,
        "isfriend": 0,
        "isfamily": 0
      },
      {
        "id": "24460215506",
        "owner": "35194391@N08",
        "secret": "fe8f72bc51",
        "server": "1640",
        "farm": 2,
        "title": "On the Road",
        "ispublic": 1,
        "isfriend": 0,
        "isfamily": 0
      },
      {
        "id": "24404007651",
        "owner": "35194391@N08",
        "secret": "7018af79b9",
        "server": "1635",
        "farm": 2,
        "title": "On the Road",
        "ispublic": 1,
        "isfriend": 0,
        "isfamily": 0
      },
      {
        "id": "23859604503",
        "owner": "35194391@N08",
        "secret": "ceeb6becfb",
        "server": "1596",
        "farm": 2,
        "title": "On the Road",
        "ispublic": 1,
        "isfriend": 0,
        "isfamily": 0
      },
      {
        "id": "23858213174",
        "owner": "35194391@N08",
        "secret": "f076135c1a",
        "server": "1714",
        "farm": 2,
        "title": "On the Road",
        "ispublic": 1,
        "isfriend": 0,
        "isfamily": 0
      },
      {
        "id": "24460195176",
        "owner": "35194391@N08",
        "secret": "2785dcf13b",
        "server": "1503",
        "farm": 2,
        "title": "On the Road",
        "ispublic": 1,
        "isfriend": 0,
        "isfamily": 0
      },
      {
        "id": "24486389775",
        "owner": "35194391@N08",
        "secret": "611e1dd345",
        "server": "1564",
        "farm": 2,
        "title": "On the Road",
        "ispublic": 1,
        "isfriend": 0,
        "isfamily": 0
      },
      {
        "id": "24403982041",
        "owner": "35194391@N08",
        "secret": "258ed68d15",
        "server": "1485",
        "farm": 2,
        "title": "On the Road",
        "ispublic": 1,
        "isfriend": 0,
        "isfamily": 0
      },
      {
        "id": "23858192504",
        "owner": "35194391@N08",
        "secret": "ce099a1ea5",
        "server": "1683",
        "farm": 2,
        "title": "On the Road",
        "ispublic": 1,
        "isfriend": 0,
        "isfamily": 0
      },
      {
        "id": "24118616809",
        "owner": "35194391@N08",
        "secret": "bec423bfe4",
        "server": "1717",
        "farm": 2,
        "title": "On the Road",
        "ispublic": 1,
        "isfriend": 0,
        "isfamily": 0
      },
      {
        "id": "24190817660",
        "owner": "35194391@N08",
        "secret": "778048f114",
        "server": "1512",
        "farm": 2,
        "title": "On the Road",
        "ispublic": 1,
        "isfriend": 0,
        "isfamily": 0
      },
      {
        "id": "24118606169",
        "owner": "35194391@N08",
        "secret": "2df7142f4c",
        "server": "1632",
        "farm": 2,
        "title": "On the Road",
        "ispublic": 1,
        "isfriend": 0,
        "isfamily": 0
      },
      {
        "id": "24460158576",
        "owner": "35194391@N08",
        "secret": "d0f8ef34a7",
        "server": "1485",
        "farm": 2,
        "title": "On the Road",
        "ispublic": 1,
        "isfriend": 0,
        "isfamily": 0
      },
      {
        "id": "24403950181",
        "owner": "35194391@N08",
        "secret": "4d2a664314",
        "server": "1711",
        "farm": 2,
        "title": "On the Road",
        "ispublic": 1,
        "isfriend": 0,
        "isfamily": 0
      },
      {
        "id": "24403946401",
        "owner": "35194391@N08",
        "secret": "9b3edcec37",
        "server": "1619",
        "farm": 2,
        "title": "On the Road",
        "ispublic": 1,
        "isfriend": 0,
        "isfamily": 0
      },
      {
        "id": "24118587639",
        "owner": "35194391@N08",
        "secret": "19386a2f1e",
        "server": "1548",
        "farm": 2,
        "title": "On the Road",
        "ispublic": 1,
        "isfriend": 0,
        "isfamily": 0
      },
      {
        "id": "23858154394",
        "owner": "35194391@N08",
        "secret": "e1f45ca46f",
        "server": "1716",
        "farm": 2,
        "title": "On the Road",
        "ispublic": 1,
        "isfriend": 0,
        "isfamily": 0
      },
      {
        "id": "23859534503",
        "owner": "35194391@N08",
        "secret": "b47d1a08cd",
        "server": "1550",
        "farm": 2,
        "title": "On the Road",
        "ispublic": 1,
        "isfriend": 0,
        "isfamily": 0
      },
      {
        "id": "24460131116",
        "owner": "35194391@N08",
        "secret": "c40b64e991",
        "server": "1451",
        "farm": 2,
        "title": "On the Road",
        "ispublic": 1,
        "isfriend": 0,
        "isfamily": 0
      },
      {
        "id": "24486325655",
        "owner": "35194391@N08",
        "secret": "424da8e0f8",
        "server": "1628",
        "farm": 2,
        "title": "On the Road",
        "ispublic": 1,
        "isfriend": 0,
        "isfamily": 0
      },
      {
        "id": "24118566059",
        "owner": "35194391@N08",
        "secret": "5e3b21a24c",
        "server": "1557",
        "farm": 2,
        "title": "On the Road",
        "ispublic": 1,
        "isfriend": 0,
        "isfamily": 0
      },
      {
        "id": "24118561189",
        "owner": "35194391@N08",
        "secret": "8b4df34d75",
        "server": "1614",
        "farm": 2,
        "title": "On the Road",
        "ispublic": 1,
        "isfriend": 0,
        "isfamily": 0
      },
      {
        "id": "24378023112",
        "owner": "35194391@N08",
        "secret": "3560e8c562",
        "server": "1530",
        "farm": 2,
        "title": "On the Road",
        "ispublic": 1,
        "isfriend": 0,
        "isfamily": 0
      },
      {
        "id": "24190755470",
        "owner": "35194391@N08",
        "secret": "4d0655e265",
        "server": "1445",
        "farm": 2,
        "title": "On the Road",
        "ispublic": 1,
        "isfriend": 0,
        "isfamily": 0
      },
      {
        "id": "24118543579",
        "owner": "35194391@N08",
        "secret": "51cea39bcf",
        "server": "1565",
        "farm": 2,
        "title": "On the Road",
        "ispublic": 1,
        "isfriend": 0,
        "isfamily": 0
      },
      {
        "id": "24190744080",
        "owner": "35194391@N08",
        "secret": "25eac2c2c7",
        "server": "1477",
        "farm": 2,
        "title": "On the Road",
        "ispublic": 1,
        "isfriend": 0,
        "isfamily": 0
      },
      {
        "id": "23859490623",
        "owner": "35194391@N08",
        "secret": "7b32786b5f",
        "server": "1532",
        "farm": 2,
        "title": "On the Road",
        "ispublic": 1,
        "isfriend": 0,
        "isfamily": 0
      }
    ]
  },
  "stat": "ok"
}